…
``` r
instacart = 
  instacart %>% 
  as_tibble(instacart)
```

``` r
# How many aisles are there, and which aisles are the most items ordered from?
instacart %>% 
  count(aisle) %>% 
  arrange(desc(n))
```

    ## # A tibble: 134 × 2
    ##    aisle                              n
    ##    <chr>                          <int>
    ##  1 fresh vegetables              150609
    ##  2 fresh fruits                  150473
    ##  3 packaged vegetables fruits     78493
    ##  4 yogurt                         55240
    ##  5 packaged cheese                41699
    ##  6 water seltzer sparkling water  36617
    ##  7 milk                           32644
    ##  8 chips pretzels                 31269
    ##  9 soy lactosefree                26240
    ## 10 bread                          23635
    ## # … with 124 more rows
…
    ## [1] 50400

``` r
ncol(accel_data)
```

    ## [1] 6

``` r
accel_data
```

    ## # A tibble: 50,400 × 6
    ## # Groups:   week, day_id [35]
    ##     week day_id day    Weekday_Weekend activity_time activity_amount
    ##    <dbl>  <dbl> <chr>  <chr>           <chr>                   <dbl>
    ##  1     1      1 Friday Weekday         1                        88.4
    ##  2     1      1 Friday Weekday         2                        82.2
    ##  3     1      1 Friday Weekday         3                        64.4
    ##  4     1      1 Friday Weekday         4                        70.0
    ##  5     1      1 Friday Weekday         5                        75.0
    ##  6     1      1 Friday Weekday         6                        66.3
    ##  7     1      1 Friday Weekday         7                        53.8
    ##  8     1      1 Friday Weekday         8                        47.8
    ##  9     1      1 Friday Weekday         9                        55.5
    ## 10     1      1 Friday Weekday         10                       43.0
    ## # … with 50,390 more rows
…
noaa  
```

    ## # A tibble: 2,595,176 × 9
    ##     year month   day id           prcp  snow  snwd  tmax  tmin
    ##    <dbl> <chr> <dbl> <chr>       <dbl> <int> <int> <dbl> <dbl>
    ##  1  2007 Nov       1 US1NYAB0001    NA    NA    NA    NA    NA
    ##  2  2007 Nov       2 US1NYAB0001    NA    NA    NA    NA    NA
    ##  3  2007 Nov       3 US1NYAB0001    NA    NA    NA    NA    NA
    ##  4  2007 Nov       4 US1NYAB0001    NA    NA    NA    NA    NA
    ##  5  2007 Nov       5 US1NYAB0001    NA    NA    NA    NA    NA
    ##  6  2007 Nov       6 US1NYAB0001    NA    NA    NA    NA    NA
    ##  7  2007 Nov       7 US1NYAB0001    NA    NA    NA    NA    NA
    ##  8  2007 Nov       8 US1NYAB0001    NA    NA    NA    NA    NA
    ##  9  2007 Nov       9 US1NYAB0001    NA    NA    NA    NA    NA
    ## 10  2007 Nov      10 US1NYAB0001    NA    NA    NA    NA    NA
    ## # … with 2,595,166 more rows

Setting prcp, tmax, and tmin to standard unit, dividing by 10. Create
new variables of year, month, and day.

``` r
# The most commonly observed values for snowfall
most_observed_snow = noaa %>% 
  count(snow) %>% 
  arrange(desc(n))

most_observed_snow
```

    ## # A tibble: 282 × 2
    ##     snow       n
    ##    <int>   <int>
    ##  1     0 2008508
    ##  2    NA  381221
    ##  3    25   31022
    ##  4    13   23095
    ##  5    51   18274
    ##  6    76   10173
    ##  7     8    9962
    ##  8     5    9748
    ##  9    38    9197
    ## 10     3    8790
    ## # … with 272 more rows
…
